
{
	"name": "JSL",
	"scopeName": "source.jsl",
	"patterns": [
		{
			"include": "#block-comments"
		},
		{
			"include": "#comments"
		},
		{
			"include": "#expressions"
		}
	],
	"repository": {
		"comments": {
			"patterns": [
				{
					"comment": "line comments",
					"name": "comment.line.jsl",
					"match": "\\s*//.*"
				}
			]
		},
		"block-comments": {
			"patterns": [
				{
					"comment": "empty block comments",
					"name": "comment.block.jsl",
					"match": "/\\*\\*/"
				},
				{
					"comment": "block comments",
					"name": "comment.block.jsl",
					"begin": "/\\*(?!\\*/)",
					"end": "\\*/",
					"patterns": [
						{
							"include": "#block-comments"
						}
					]
				}
			]
		},
		"expressions": {
			"patterns": [
				{
					"include": "#stringnames"
				},
				{
					"include": "#strings"
				},
				{
					"include": "#numbers"
				},
				{
					"include": "#messages"
				},
				{
					"include": "#namespaces"
				},
				{
					"include": "#evalinsert"
				},
				{
					"include": "#functions"
				},
				{
					"include": "#names"
				},
				{
					"include": "#operators"
				}
			]
		},
		"numbers": {
			"patterns": [
				{
					"match": "(?i)[0-3]?[0-9](?:JAN|FEB|MAR|APR|MAY|JUN|JUL|AUG|SEP|OCT|NOV|DEC)[0-9]+(?::[0-2]?[0-9]:[0-5]?[0-9](:[0-5]?[0-9])?)?",
					"name": "constant.numeric.date.jsl"
				},
				{
					"match": "(?i)\\b-?(?:0x[\\da-f]+|\\d*\\.?\\d+(?:e[+-]?\\d+)?)\\b",
					"name": "constant.numeric.decimal.jsl"
				}
			]
		},
		"strings": {
			"patterns": [
				{
					"begin": "\"",
					"beginCaptures": {
						"0": {
							"name": "punctuation.definition.string.begin.jsl"
						}
					},
					"end": "\"",
					"endCaptures": {
						"0": {
							"name": "punctuation.definition.string.end.jsl"
						}
					},
					"name": "string.quoted.double.jsl",
					"patterns": [
						{
							"include": "#raw-string"
						},
						{
							"include": "#escaped-char"
						}
					]
				}
			]
		},
		"raw-string": {
			"begin": "(\\\\\\[)",
			"beginCaptures": {
				"1": {
					"name": "constant.character.escape.raw.begin.jsl"
				}
			},
			"end": "(\\]\\\\)",
			"endCaptures": {
				"1": {
					"name": "constant.character.escape.raw.end.jsl"
				}
			},
			"name": "string.quoted.double.raw.jsl"
		},
		"escaped-char": {
			"match": "\\\\!([\\\\btrnNf0\"]|[uU][a-fA-F0-9]{,4})",
			"name": "constant.character.escape.jsl"
		},
		"messages" : {
			"patterns" : [
				{
					"match": "(<<)([^\\(;:,`\"/~*&@!\\-+=\\)\\^<>]*)",
					"captures":{
						"1":{
							"name":"keyword.operator.jsl"
						},
						"2": {
							"name": "support.function.jsl"
						}
					}
					
				}
			]
		},
		"namespaces":{
			"patterns": [
				{
					"match": "([A-Za-z_][\\w\\s'#$%.?\\\\]*)(:)(?![:*/])",
					"captures": {
						"1":{
							"name": "entity.name.namespace.jsl"
						},
						"2":{
							"name": "keyword.operator.jsl"
						}
					}
				}
			]
		},
		"evalinsert": {
			"begin": "(?i)(eval\\s*insert)(\\()",
			"beginCaptures": {
				"1": {
					"name": "keyword.jsl"
				},
				"2": {
					"name": "punctuation.bracket.round.jsl"
				}
			},
			"end": "(\\))|,",
			"endCaptures": {
				"1": {
					"name": "punctuation.bracket.round.jsl"
				}
			},
			"patterns": [
				{
					"include": "#interpolated-string"
				},
				{
					"include": "#expressions"
				}
			]
		},
		"interpolated-string": {
			"name": "string.quoted.double.jsl",
			"begin": "\"",
			"beginCaptures": {
				"0": {
					"name": "punctuation.definition.string.begin.jsl"
				}
			},
			"end": "\"",
			"endCaptures": {
				"0": {
					"name": "punctuation.definition.string.end.jsl"
				}
			},
			"patterns": [
				{
					"include": "#interpolated-raw-string"
				},
				{
					"include": "#escaped-char"
				},
				{
					"include": "#unmatched-interpolation"
				},
				{
					"include": "#interpolation"
				}
			]
		},
		"interpolated-raw-string": {
			"begin": "(\\\\\\[)",
			"beginCaptures": {
				"1": {
					"name": "constant.character.escape.raw.begin.jsl"
				}
			},
			"end": "(\\]\\\\)",
			"endCaptures": {
				"1": {
					"name": "constant.character.escape.raw.end.jsl"
				}
			},
			"name": "string.quoted.double.raw.jsl",
			"patterns": [
				{
					"include": "#unmatched-raw-interpolation"
				},
				{
					"include": "#interpolation"
				}
			]
		},
		"unmatched-interpolation": {
			"begin": "\\^(?=[^\\^]*\")",
			"end": "(?=\")",
			"patterns": [
				{
					"match": "[^\\^\"]*"
				}
			]
		},
		"unmatched-raw-interpolation": {
			"begin": "\\^(?=[^\\^]*\\]\\\\)",
			"end": "(?=\\]\\\\)",
			"patterns": [
				{
					"match": ".+?(?=\\]\\\\|\\^)"
				}
			]
		},
		"interpolation": {
			"name": "meta.interpolation.jsl",
			"begin": "\\^",
			"beginCaptures": {
				"0": {
					"name": "punctuation.definition.interpolation.begin.jsl"
				}
			},
			"end": "\\^",
			"endCaptures": {
				"0": {
					"name": "punctuation.definition.interpolation.end.jsl"
				}
			},
			"patterns": [
				{
					"include": "#expressions"
				}
			]
		},
		"functions":{
			"patterns": [
				{
					"match": "(?i)([A-Za-z_][\\w\\s'#$%.?\\\\]*)\\s*(=)\\s*(f\\s*u\\s*n\\s*c\\s*t\\s*i\\s*o\\s*n|m\\s*e\\s*t\\s*h\\s*o\\s*d)\\s*(\\()",
					"captures": {
						"1":{
							"name": "keyword.jsl"
						},
						"2":{
							"name": "keyword.operator.jsl"
						},
						"3":{
							"name": "keyword.jsl"
						},
						"4":{
							"name": "punctuation.bracket.round.jsl"
						}
					}
				},
				{
					"match": "([A-Za-z_][\\w\\s'#$%.?\\\\]*)(\\()",
					"captures": {
						"1":{
							"name": "keyword.jsl"
						},
						"2":{
							"name": "punctuation.bracket.round.jsl"
						}
					}
				}
			]
		},
		"stringnames": {
			"name": "variable.stringname.jsl",
			"match": "\"(\\\\!\"|[^\"])*?(?<!\\\\!)\"n"
		},
		"names": {
			"name": "variable.other.jsl",
			"match": "[A-Za-z_\\u0080-\\uFFFF][\\w\\s\\u0080-\\uFFFF'#$%.?\\\\]*"
		},
		"operators":{
			"patterns": [
				{
					"match": "--?|\\+\\+?|!=?=?|<=?|>=?|==?=?|&&?|\\|\\|?|\\?|\\*|\/|~|\\^|%",
					"name": "keyword.operator.jsl"
				}
			]
		}
	}
}